Descarga resultados electorales de España a nivel de mesa electoral del Ministerio del Interior • infoelectoral
…
mesas() downloads the electoral results data of the selected election at the polling station level.

municipios() downloads the electoral results data of the selected election at the municipality level.

provincias() downloads the electoral results data of the selected election at the constituency level.

candidatos() downloads the candidates data of the selected elections.

Example

library(infoelectoral)
df <- municipios(tipo_eleccion = "congreso", anno = 1982, mes = "10")

dplyr::as_tibble(df)
#> # A tibble: 119,188 × 34
#>    tipo_eleccion anno  mes   vuelta codigo_ccaa codigo_provincia
#>    <chr>         <chr> <chr> <chr>  <chr>       <chr>           
#>  1 02            1982  10    1      14          01              
#>  2 02            1982  10    1      14          01              
#>  3 02            1982  10    1      14          01              
#>  4 02            1982  10    1      14          01              
#>  5 02            1982  10    1      14          01              
#>  6 02            1982  10    1      14          01              
#>  7 02            1982  10    1      14          01              
#>  8 02            1982  10    1      14          01              
#>  9 02            1982  10    1      14          01              
#> 10 02            1982  10    1      14          01              
#> # ℹ 119,178 more rows
#> # ℹ 28 more variables: codigo_municipio <chr>, municipio <chr>,
#> #   codigo_distrito <chr>, codigo_distrito_electoral <chr>,
#> #   codigo_partido_judicial <chr>, codigo_diputacion <chr>,
#> #   codigo_comarca <chr>, poblacion_derecho <dbl>, numero_mesas <dbl>,
#> #   censo_ine <dbl>, censo_escrutinio <dbl>, censo_cere <dbl>,
#> #   votantes_cere <dbl>, participacion_1 <dbl>, participacion_2 <dbl>, …
…
